  .   ____        _   _          _           _      __ _ _
 /\\ / ___|  ___ | |_| |__   ___| |__  _   _( )___  \ \ \ \
( ( )\___ \ / _ \| __| '_ \ / _ \ '_ \| | | |// __|  \ \ \ \
 \\/  ___) | (_) | |_| | | |  __/ |_) | |_| | \__ \   ) ) ) )
  '  |____/ \___/ \__|_| |_|\___|_.__/ \__, | |___/  / / / /
 ======================================|___/======= /_/_/_/
 ___  __   __      __          ___      ___     __   ___  __          __   ___
|__  /  \ /__`    /  ` |    | |__  |\ |  |     /__` |__  |__) \  / | /  ` |__
|___ \__/ .__/    \__, |___ | |___ | \|  |     .__/ |___ |  \  \/  | \__, |___
:: Spring Boot :: ${spring-boot.formatted-version}